<?xml version="1.0" encoding="UTF-8"?>
<svg width="103px" height="22px" viewBox="0 0 103 22" version="1.1" xmlns="http://www.w3.org/2000/svg" xmlns:xlink="http://www.w3.org/1999/xlink">
    <!-- Generator: sketchtool 52.3 (67297) - http://www.bohemiancoding.com/sketch -->
    <title>C2F43A2E-2F15-4260-921F-25CCCE1A1B4C</title>
    <desc>Created with sketchtool.</desc>
    <defs>
        <filter x="-3.2%" y="-9.6%" width="106.4%" height="119.2%" filterUnits="objectBoundingBox" id="filter-1">
            <feOffset dx="0" dy="2" in="SourceAlpha" result="shadowOffsetOuter1"></feOffset>
            <feGaussianBlur stdDeviation="2" in="shadowOffsetOuter1" result="shadowBlurOuter1"></feGaussianBlur>
            <feColorMatrix values="0 0 0 0 0   0 0 0 0 0   0 0 0 0 0  0 0 0 0.08 0" type="matrix" in="shadowBlurOuter1" result="shadowMatrixOuter1"></feColorMatrix>
            <feMerge>
                <feMergeNode in="shadowMatrixOuter1"></feMergeNode>
                <feMergeNode in="SourceGraphic"></feMergeNode>
            </feMerge>
        </filter>
    </defs>
    <g id="Page-1" stroke="none" stroke-width="1" fill="none" fill-rule="evenodd">
        <g id="Particulier---menus" transform="translate(-136.000000, -23.000000)" fill="#F9F9F9">
            <g id="nav1" filter="url(#filter-1)">
                <g id="Group-4">
                    <g id="Group-2">
                        <g id="Paula_logo" transform="translate(140.000000, 25.000000)">
                            <path d="M11,4.14215686 C11,6.4745098 8.94007491,8.30980392 6.17977528,8.30980392 L3.04868914,8.30980392 L3.04868914,13 L0,13 L0,0 L6.17977528,0 C8.91260924,0 11,1.80980392 11,4.14215686 Z M7.9650437,4.16764706 C7.9650437,3.30098039 7.20973783,2.70196078 6.17977528,2.70196078 L3.04868914,2.70196078 L3.04868914,5.62058824 L6.17977528,5.62058824 C7.20973783,5.62058824 7.9650437,4.98333333 7.9650437,4.16764706 Z" id="Shape" fill-rule="nonzero"></path>
                            <path d="M28.4748603,10.3490196 L22.5251397,10.3490196 L21.3519553,13 L18,13 L23.9217877,0 L26.9944134,0 L33,13 L29.6480447,13 L28.4748603,10.3490196 Z M27.3575419,7.92745098 L25.472067,3.74705882 L23.6145251,7.92745098 L27.3575419,7.92745098 Z" id="Shape" fill-rule="nonzero"></path>
                            <path d="M48.9387755,8.00941915 C48.9387755,10.0062794 47.7823129,11.2872841 46,11.2872841 C44.2176871,11.2872841 43.0612245,10.0062794 43.0612245,8.00941915 L43.0612245,6 L40,6 L40,8.04709576 C40,11.6012559 42.4217687,14 46,14 C49.5782313,14 52,11.6138148 52,8.04709576 L52,6 L48.9387755,6 L48.9387755,8.00941915 Z" id="Path"></path>
                            <polygon id="Path" points="72 10.2852941 72 13 62 13 62 0 65.2051282 0 65.2051282 10.2852941"></polygon>
                            <path d="M90.4748603,10.3490196 L84.5251397,10.3490196 L83.3519553,13 L80,13 L85.9217877,0 L88.9944134,0 L95,13 L91.6480447,13 L90.4748603,10.3490196 Z M89.3715084,7.92745098 L87.4860335,3.74705882 L85.6145251,7.92745098 L89.3715084,7.92745098 Z" id="Shape" fill-rule="nonzero"></path>
                            <path d="M41.8933333,3 L41.1066667,3 C40.4933333,3 40,2.46889952 40,1.80861244 L40,1.19138756 C40,0.531100478 40.4933333,0 41.1066667,0 L41.8933333,0 C42.5066667,0 43,0.531100478 43,1.19138756 L43,1.80861244 C43,2.46889952 42.5066667,3 41.8933333,3 Z" id="Path"></path>
                            <path d="M50.8933333,3 L50.1066667,3 C49.4933333,3 49,2.46889952 49,1.80861244 L49,1.19138756 C49,0.531100478 49.4933333,0 50.1066667,0 L50.8933333,0 C51.5066667,0 52,0.531100478 52,1.19138756 L52,1.80861244 C52,2.46889952 51.5066667,3 50.8933333,3 Z" id="Path"></path>
                        </g>
                    </g>
                </g>
            </g>
        </g>
    </g>
</svg>